user_01@domain.net,User Name 001,1984-1-30,(+57) 320-432-05-09,"User 001 Address, 001",371449635398431
user_02@domain.net,User Name 002,1984-2-29,(+57) 320-432-01-02,"User 002 Address, 002",30569309025904
user_03@domain.net,User Name 003,1984-3-28,(+57) 320-432-01-03,"User 003 Address, 003",6011111111111117
user_04@domain.net,User Name 004,1984-4-27,(+57) 320-432-01-04,"User 004 Address, 004",3530111333300000
user_05@domain.net,User Name 005,1984-5-26,(+57) 320-432-01-05,"User 005 Address, 005",5555555555554444
user_06@domain.net,User Name 006,1984-6-25,(+57) 320-432-01-06,"User 006 Address, 006",4111111111111111